{
  "catalystStack": {
    "registryName": {
      "domain": "minecraft",
      "path": "diamond_block"
    },
    "meta": 0
  },
  "components": [
    {
      "weight": 200,
      "oreName": "oreGold"
    },
    {
      "weight": 720,
      "oreName": "oreEmerald"
    },
    {
      "weight": 600,
      "oreName": "oreDiamond"
    },
    {
      "weight": 200,
      "oreName": "oreSapphire"
    },
    {
      "weight": 200,
      "oreName": "oreAmber"
    },
    {
      "weight": 200,
      "oreName": "oreCinnabar"
    },
    {
      "weight": 200,
      "oreName": "oreDimensionalShard"
    },
    {
      "weight": 100,
      "oreName": "orePlatinum"
    },
    {
      "weight": 100,
      "oreName": "oreMithril"
    },
    {
      "weight": 50,
      "oreName": "oreIridium"
    },
    {
      "weight": 10,
      "oreName": "oreTungsten"
    }
  ],
  "explosionStrength": 20.0,
  "radius": 6,
  "maxWeight": 2580,
  "version": 3
}